Tidyverse Skills for Data Science
…
When using ggplot2 to generate figures, you will always begin by calling the ggplot() function. You’ll then specify your dataset within the ggplot() function. Then, before making your plot you will also have to specify what geom type you’re interested in plotting. We’ll focus on a few basic geoms in the next section and give examples of each plot type (geom), but for now we’ll just work with a single geom: geom_point.

geom_point is most helpful for creating scatterplots. As a reminder from an earlier lesson, scatterplots are useful when you’re looking at the relationship between two numeric variables. Within geom you will specify the arguments needed to tell ggplot2 how you want your plot to look.

You will map your variables using the aesthetic argument aes. We’ll walk through examples below to make all of this clear. However, get comfortable with the overall look of the code now.

4.6.2 Example Dataset: diamonds

To build your first plot in ggplot2 we’ll make use of the fact that there are some datasets already available in R. One frequently-used dataset is known as diamonds. This dataset contains prices and other attributes of 53,940 diamonds, with each row containing information about a different diamond. If you look at the first few rows of data, you can get an idea of what data are included in this dataset.

diamonds <- as_tibble(diamonds)
diamonds

## # A tibble: 53,940 x 10
##    carat cut       color clarity depth table price     x     y     z
##    <dbl> <ord>     <ord> <ord>   <dbl> <dbl> <int> <dbl> <dbl> <dbl>
##  1 0.23  Ideal     E     SI2      61.5    55   326  3.95  3.98  2.43
##  2 0.21  Premium   E     SI1      59.8    61   326  3.89  3.84  2.31
##  3 0.23  Good      E     VS1      56.9    65   327  4.05  4.07  2.31
##  4 0.290 Premium   I     VS2      62.4    58   334  4.2   4.23  2.63
##  5 0.31  Good      J     SI2      63.3    58   335  4.34  4.35  2.75
##  6 0.24  Very Good J     VVS2     62.8    57   336  3.94  3.96  2.48
##  7 0.24  Very Good I     VVS1     62.3    57   336  3.95  3.98  2.47
##  8 0.26  Very Good H     SI1      61.9    55   337  4.07  4.11  2.53
##  9 0.22  Fair      E     VS2      65.1    61   337  3.87  3.78  2.49
## 10 0.23  Very Good H     VS1      59.4    61   338  4     4.05  2.39
## # … with 53,930 more rows
…
4.10.1 Case Study #1: Health Expenditures

We’ve now got the data in order so that we can start to explore the relationships between the variables contained in the health care dataset (hc) to answer our questions of interest:

Is there a relationship between healthcare coverage and healthcare spending in the United States?

How does the spending distribution change across geographic regions in the United States?

Does the relationship between healthcare coverage and healthcare spending in the United States change from 2013 to 2014?

# see health care data
hc

## # A tibble: 612 x 10
##    Location  year type  tot_coverage abb   region tot_spending tot_pop
##    <chr>    <int> <chr>        <int> <chr> <fct>         <dbl>   <int>
##  1 Alabama   2013 Empl…      2126500 AL    South         33788 4763900
##  2 Alabama   2013 Non-…       174200 AL    South         33788 4763900
##  3 Alabama   2013 Medi…       869700 AL    South         33788 4763900
##  4 Alabama   2013 Medi…       783000 AL    South         33788 4763900
##  5 Alabama   2013 Othe…        85600 AL    South         33788 4763900
##  6 Alabama   2013 Unin…       724800 AL    South         33788 4763900
##  7 Alabama   2014 Empl…      2202800 AL    South         35263 4768000
##  8 Alabama   2014 Non-…       288900 AL    South         35263 4768000
##  9 Alabama   2014 Medi…       891900 AL    South         35263 4768000
## 10 Alabama   2014 Medi…       718400 AL    South         35263 4768000
## # … with 602 more rows, and 2 more variables: prop_coverage <dbl>,
## #   spending_capita <dbl>
…
Now, of course there are many ways in which we could customize each of these plots to be “publication-ready,” but for now, we’ll stop with this case study having gained a lot of new insight into these data and answers to our questions we now have, simply from generating a few exploratory plots.

4.10.2 Case Study #2: Firearms

For our second case study, we’re interested in the following question:

At the state-level, what is the relationship between firearm legislation strength and annual rate of fatal police shootings?

In the previous course, we wrangled the data into a single, helpful data frame: firearms.

# see firearms data
firearms

## # A tibble: 51 x 15
##    NAME  white black hispanic  male total_pop violent_crime brady_scores
##    <chr> <dbl> <dbl>    <dbl> <dbl>     <dbl>         <dbl>        <dbl>
##  1 alab…  69.5 26.7      4.13  48.5   4850858          472.        -18  
##  2 alas…  66.5  3.67     6.82  52.4    737979          730.        -30  
##  3 ariz…  83.5  4.80    30.9   49.7   6802262          410.        -39  
##  4 arka…  79.6 15.7      7.18  49.1   2975626          521.        -24  
##  5 cali…  73.0  6.49    38.7   49.7  39032444          426.         76  
##  6 colo…  87.6  4.47    21.3   50.3   5440445          321          22  
##  7 conn…  80.9 11.6     15.3   48.8   3593862          218.         73  
##  8 dela…  70.3 22.5      8.96  48.4    944107          499          41  
##  9 dist…  44.1 48.5     10.7   47.4    672736         1269.         NA  
## 10 flor…  77.7 16.9     24.7   48.9  20268567          462.        -20.5
## # … with 41 more rows, and 7 more variables: gunshot_tally <int>,
## #   gunshot_filtered <int>, gunshot_rate <dbl>, unemployment_rate <dbl>,
## #   unemployment_rank <int>, density <dbl>, ownership <dbl>
…
