…
#### `as_tibble()`

Since many packages use the historical data.frame from base R, you'll often find yourself in the situation that you have a data.frame and want to convert that data.frame to a tibble. To do so, the `as_tibble()` function is exactly what you're looking for.

For example, the `trees` dataset is a data.frame that's available in base R. This dataset stores the diameter, height, and volume for Black Cherry Trees. To convert this data.frame to a tibble you would use the following:


```r
as_tibble(trees)
```

```
## # A tibble: 31 x 3
##    Girth Height Volume
##    <dbl>  <dbl>  <dbl>
##  1   8.3     70   10.3
##  2   8.6     65   10.3
##  3   8.8     63   10.2
##  4  10.5     72   16.4
##  5  10.7     81   18.8
##  6  10.8     83   19.7
##  7  11       66   15.6
##  8  11       75   18.2
##  9  11.1     80   22.6
## 10  11.2     75   19.9
## # … with 21 more rows
```
…
Additionally, you'll note that the type of the variable is printed for each variable in the tibble. This helpful feature is another added bonus of tibbles relative to data.frame.

If you *do* want to see more rows from the tibble, there are a few options! First, the `View()` function in RStudio is incredibly helpful. The input to this function is the data.frame or tibble you'd like to see. Specifically, `View(trees)` would provide you, the viewer, with a scrollable view (in a new tab) of the complete dataset. 

A second option is the fact that `print()` enables you to specify how many rows and columns you'd like to display. Here, we again display the `trees` data.frame as a tibble but specify that we'd only like to see 5 rows. The `width = Inf` argument specifies that we'd like to see all the possible columns. Here, there are only 3, but for larger datasets, this can be helpful to specify.


```r
as_tibble(trees) %>% 
  print(n = 5, width = Inf)
```

```
## # A tibble: 31 x 3
##   Girth Height Volume
##   <dbl>  <dbl>  <dbl>
## 1   8.3     70   10.3
## 2   8.6     65   10.3
## 3   8.8     63   10.2
## 4  10.5     72   16.4
## 5  10.7     81   18.8
## # … with 26 more rows
```
…
Within the `readxl` package there are a number of example datasets that we can use to demonstrate the packages functionality. To read the example dataset in, we'll use the `readxl_example()` function.


```r
# read example file into R
example <- readxl_example("datasets.xlsx")
df <- read_excel(example)
df
```

```
## # A tibble: 150 x 5
##    Sepal.Length Sepal.Width Petal.Length Petal.Width Species
##           <dbl>       <dbl>        <dbl>       <dbl> <chr>  
##  1          5.1         3.5          1.4         0.2 setosa 
##  2          4.9         3            1.4         0.2 setosa 
##  3          4.7         3.2          1.3         0.2 setosa 
##  4          4.6         3.1          1.5         0.2 setosa 
##  5          5           3.6          1.4         0.2 setosa 
##  6          5.4         3.9          1.7         0.4 setosa 
##  7          4.6         3.4          1.4         0.3 setosa 
##  8          5           3.4          1.5         0.2 setosa 
##  9          4.4         2.9          1.4         0.2 setosa 
## 10          4.9         3.1          1.5         0.1 setosa 
## # … with 140 more rows
```
…
* `sheet` - argument specifies the name of the sheet from the workbook you'd like to read in (string) or the integer of the sheet from the workbook.
* `col_names` - specifies whether the first row of the spreadsheet should be used as column names (default: TRUE). Additionally, if a character vector is passed, this will rename the columns explicitly at time of import.
* `skip` - specifies the number of rows to skip before reading information from the file into R. Often blank rows or information about the data are stored at the top of the spreadsheet that you want R to ignore.

For example, we are able to change the column names directly by passing a character string to the `col_names` argument:


```r
# specify column names on import
read_excel(example, col_names = LETTERS[1:5])
```

```
## # A tibble: 151 x 5
##    A            B           C            D           E      
##    <chr>        <chr>       <chr>        <chr>       <chr>  
##  1 Sepal.Length Sepal.Width Petal.Length Petal.Width Species
##  2 5.1          3.5         1.4          0.2         setosa 
##  3 4.9          3           1.4          0.2         setosa 
##  4 4.7          3.2         1.3          0.2         setosa 
##  5 4.6          3.1         1.5          0.2         setosa 
##  6 5            3.6         1.4          0.2         setosa 
##  7 5.4          3.9         1.7          0.4         setosa 
##  8 4.6          3.4         1.4          0.3         setosa 
##  9 5            3.4         1.5          0.2         setosa 
## 10 4.4          2.9         1.4          0.2         setosa 
## # … with 141 more rows
```
…
Throughout this lesson we will use the coloring use see here to explain the joins, so we want to explain it explicitly here. Green cells are cells that will be used to make the merge happen and will be included in the resulting merged table. Blue cells are information that comes from the `artists` table that will be included after the merge. Red cells are pieces of information that come from the `albums` table that will be included after the merge. Finally, cells that are left white in the `artists` or `albums` table are cells that will not be included in the merge while cells that are white *after* the merge are NAs that have been added as a result of the merge.

Now, to run this for our tables from the database, rather than just for a few rows in our toy example, you would do the following:


```r
## do inner join
inner <- inner_join(artists, albums, by = "ArtistId")

## look at output as a tibble
as_tibble(inner)
```

```
## # A tibble: 347 x 4
##    ArtistId Name                 AlbumId Title                                
##       <int> <chr>                  <int> <chr>                                
##  1        1 AC/DC                      1 For Those About To Rock We Salute You
##  2        2 Accept                     2 Balls to the Wall                    
##  3        2 Accept                     3 Restless and Wild                    
##  4        1 AC/DC                      4 Let There Be Rock                    
##  5        3 Aerosmith                  5 Big Ones                             
##  6        4 Alanis Morissette          6 Jagged Little Pill                   
##  7        5 Alice In Chains            7 Facelift                             
##  8        6 Antônio Carlos Jobim       8 Warner 25 Anos                       
##  9        7 Apocalyptica               9 Plays Metallica By Four Cellos       
## 10        8 Audioslave                10 Audioslave                           
## # … with 337 more rows
```
…
Now, to run this for our tables from the database, rather than just for a few rows in our toy example, you would do the following:


```r
## do left join
left <- left_join(artists, albums, by = "ArtistId")

## look at output as a tibble
as_tibble(left)
```

```
## # A tibble: 418 x 4
##    ArtistId Name                 AlbumId Title                                
##       <int> <chr>                  <int> <chr>                                
##  1        1 AC/DC                      1 For Those About To Rock We Salute You
##  2        1 AC/DC                      4 Let There Be Rock                    
##  3        2 Accept                     2 Balls to the Wall                    
##  4        2 Accept                     3 Restless and Wild                    
##  5        3 Aerosmith                  5 Big Ones                             
##  6        4 Alanis Morissette          6 Jagged Little Pill                   
##  7        5 Alice In Chains            7 Facelift                             
##  8        6 Antônio Carlos Jobim       8 Warner 25 Anos                       
##  9        6 Antônio Carlos Jobim      34 Chill: Brazil (Disc 2)               
## 10        7 Apocalyptica               9 Plays Metallica By Four Cellos       
## # … with 408 more rows
```
…
Now, to run this for our tables from the database, you would have to do something *slightly* different than what you saw above. Note in the code below that we have to change the class of the tables from the database into tibbles before doing the join. This is because SQL does not currently support right or full joins, but `dplyr` does. Thus, we first have to be sure the data are a class that `dplyr` can work with using `as_tibble()`. Other than that, the code below is similar to what you've seen already:


```r
## do right join
right <- right_join(as_tibble(artists), as_tibble(albums), by = "ArtistId")

## look at output as a tibble
as_tibble(right)
```

```
## # A tibble: 347 x 4
##    ArtistId Name                 AlbumId Title                                
##       <int> <chr>                  <int> <chr>                                
##  1        1 AC/DC                      1 For Those About To Rock We Salute You
##  2        1 AC/DC                      4 Let There Be Rock                    
##  3        2 Accept                     2 Balls to the Wall                    
##  4        2 Accept                     3 Restless and Wild                    
##  5        3 Aerosmith                  5 Big Ones                             
##  6        4 Alanis Morissette          6 Jagged Little Pill                   
##  7        5 Alice In Chains            7 Facelift                             
##  8        6 Antônio Carlos Jobim       8 Warner 25 Anos                       
##  9        6 Antônio Carlos Jobim      34 Chill: Brazil (Disc 2)               
## 10        7 Apocalyptica               9 Plays Metallica By Four Cellos       
## # … with 337 more rows
```
…
As you saw in the last example, to carry out a full join, we have to again specify that the objects are tibbles before being able to carry out the join:


```r
## do right join
full <- full_join(as_tibble(artists), as_tibble(albums), by = "ArtistId")

## look at output as a tibble
as_tibble(full)
```

```
## # A tibble: 418 x 4
##    ArtistId Name                 AlbumId Title                                
##       <int> <chr>                  <int> <chr>                                
##  1        1 AC/DC                      1 For Those About To Rock We Salute You
##  2        1 AC/DC                      4 Let There Be Rock                    
##  3        2 Accept                     2 Balls to the Wall                    
##  4        2 Accept                     3 Restless and Wild                    
##  5        3 Aerosmith                  5 Big Ones                             
##  6        4 Alanis Morissette          6 Jagged Little Pill                   
##  7        5 Alice In Chains            7 Facelift                             
##  8        6 Antônio Carlos Jobim       8 Warner 25 Anos                       
##  9        6 Antônio Carlos Jobim      34 Chill: Brazil (Disc 2)               
## 10        7 Apocalyptica               9 Plays Metallica By Four Cellos       
## # … with 408 more rows
```
…
```r
coverage
```

```
## # A tibble: 78 x 29
##    Location `2013__Employer` `2013__Non-Grou… `2013__Medicaid` `2013__Medicare`
##    <chr>               <dbl>            <dbl>            <dbl>            <dbl>
##  1 United …        155696900         13816000         54919100         40876300
##  2 Alabama           2126500           174200           869700           783000
##  3 Alaska             364900            24000            95000            55200
##  4 Arizona           2883800           170800          1346100           842000
##  5 Arkansas          1128800           155600           600800           515200
##  6 Califor…         17747300          1986400          8344800          3828500
##  7 Colorado          2852500           426300           697300           549700
##  8 Connect…          2030500           126800           532000           475300
##  9 Delaware           473700            25100           192700           141300
## 10 Distric…           324300            30400           174900            59900
## # … with 68 more rows, and 24 more variables: `2013__Other Public` <chr>,
## #   `2013__Uninsured` <dbl>, `2013__Total` <dbl>, `2014__Employer` <dbl>,
## #   `2014__Non-Group` <dbl>, `2014__Medicaid` <dbl>, `2014__Medicare` <dbl>,
## #   `2014__Other Public` <chr>, `2014__Uninsured` <dbl>, `2014__Total` <dbl>,
## #   `2015__Employer` <dbl>, `2015__Non-Group` <dbl>, `2015__Medicaid` <dbl>,
## #   `2015__Medicare` <dbl>, `2015__Other Public` <chr>,
## #   `2015__Uninsured` <dbl>, `2015__Total` <dbl>, `2016__Employer` <dbl>,
## #   `2016__Non-Group` <dbl>, `2016__Medicaid` <dbl>, `2016__Medicare` <dbl>,
## #   `2016__Other Public` <chr>, `2016__Uninsured` <dbl>, `2016__Total` <dbl>
```

So, the first few lines of the dataset appear to store information for each state (observation) in the rows and different variables in the columns. What about the final few lines of the file?


```r
tail(coverage, n = 30)
```

```
## # A tibble: 30 x 29
##    Location `2013__Employer` `2013__Non-Grou… `2013__Medicaid` `2013__Medicare`
##    <chr>               <dbl>            <dbl>            <dbl>            <dbl>
##  1 "Washin…          3541600           309000          1026800           879000
##  2 "West V…           841300            42600           382500           329400
##  3 "Wiscon…          3154500           225300           907600           812900
##  4 "Wyomin…           305900            19500            74200            65400
##  5 "Notes"                NA               NA               NA               NA
##  6 "The ma…               NA               NA               NA               NA
##  7  <NA>                  NA               NA               NA               NA
##  8 "In thi…               NA               NA               NA               NA
##  9  <NA>                  NA               NA               NA               NA
## 10 "Data e…               NA               NA               NA               NA
## # … with 20 more rows, and 24 more variables: `2013__Other Public` <chr>,
## #   `2013__Uninsured` <dbl>, `2013__Total` <dbl>, `2014__Employer` <dbl>,
## #   `2014__Non-Group` <dbl>, `2014__Medicaid` <dbl>, `2014__Medicare` <dbl>,
## #   `2014__Other Public` <chr>, `2014__Uninsured` <dbl>, `2014__Total` <dbl>,
## #   `2015__Employer` <dbl>, `2015__Non-Group` <dbl>, `2015__Medicaid` <dbl>,
## #   `2015__Medicare` <dbl>, `2015__Other Public` <chr>,
## #   `2015__Uninsured` <dbl>, `2015__Total` <dbl>, `2016__Employer` <dbl>,
## #   `2016__Non-Group` <dbl>, `2016__Medicaid` <dbl>, `2016__Medicare` <dbl>,
## #   `2016__Other Public` <chr>, `2016__Uninsured` <dbl>, `2016__Total` <dbl>
```
…
#### Census Data

Population characteristics at the state level for 2017 are available [here](https://raw.githubusercontent.com/opencasestudies/ocs-police-shootings-firearm-legislation/master/data/sc-est2017-alldata6.csv). Let's read it into R.


```r
# read in the census data
census <- read_csv('https://raw.githubusercontent.com/opencasestudies/ocs-police-shootings-firearm-legislation/master/data/sc-est2017-alldata6.csv',
                   n_max = 236900)
census
```

```
## # A tibble: 236,844 x 19
##    SUMLEV REGION DIVISION STATE NAME    SEX ORIGIN  RACE   AGE CENSUS2010POP
##    <chr>   <dbl>    <dbl> <chr> <chr> <dbl>  <dbl> <dbl> <dbl>         <dbl>
##  1 040         3        6 01    Alab…     0      0     1     0         37991
##  2 040         3        6 01    Alab…     0      0     1     1         38150
##  3 040         3        6 01    Alab…     0      0     1     2         39738
##  4 040         3        6 01    Alab…     0      0     1     3         39827
##  5 040         3        6 01    Alab…     0      0     1     4         39353
##  6 040         3        6 01    Alab…     0      0     1     5         39520
##  7 040         3        6 01    Alab…     0      0     1     6         39813
##  8 040         3        6 01    Alab…     0      0     1     7         39695
##  9 040         3        6 01    Alab…     0      0     1     8         40012
## 10 040         3        6 01    Alab…     0      0     1     9         42073
## # … with 236,834 more rows, and 9 more variables: ESTIMATESBASE2010 <dbl>,
## #   POPESTIMATE2010 <dbl>, POPESTIMATE2011 <dbl>, POPESTIMATE2012 <dbl>,
## #   POPESTIMATE2013 <dbl>, POPESTIMATE2014 <dbl>, POPESTIMATE2015 <dbl>,
## #   POPESTIMATE2016 <dbl>, POPESTIMATE2017 <dbl>
```
…
#### Suicide Data

Information about suicide and suicide as a result of firearms can also be directly read into R from the CSVs stored on GitHub:


```r
# read in suicide data
suicide_all <- read_csv("https://raw.githubusercontent.com/opencasestudies/ocs-police-shootings-firearm-legislation/master/data/suicide_all.csv")
suicide_all
```

```
## # A tibble: 51 x 12
##    Sex   Race  State Ethnicity `Age Group` `First Year` `Last Year`
##    <chr> <chr> <chr> <chr>     <chr>              <dbl>       <dbl>
##  1 Both… All … Alab… Both      All Ages            2015        2016
##  2 Both… All … Alas… Both      All Ages            2015        2016
##  3 Both… All … Ariz… Both      All Ages            2015        2016
##  4 Both… All … Arka… Both      All Ages            2015        2016
##  5 Both… All … Cali… Both      All Ages            2015        2016
##  6 Both… All … Colo… Both      All Ages            2015        2016
##  7 Both… All … Conn… Both      All Ages            2015        2016
##  8 Both… All … Dela… Both      All Ages            2015        2016
##  9 Both… All … Flor… Both      All Ages            2015        2016
## 10 Both… All … Geor… Both      All Ages            2015        2016
## # … with 41 more rows, and 5 more variables: `Cause of Death` <chr>,
## #   Deaths <dbl>, Population <dbl>, `Crude Rate` <dbl>, `Age-Adjusted
## #   Rate` <chr>
```

```r
# read in firearm suicide data
suicide_firearm <- read_csv("https://raw.githubusercontent.com/opencasestudies/ocs-police-shootings-firearm-legislation/master/data/suicide_firearm.csv")
suicide_firearm
```

```
## # A tibble: 51 x 12
##    Sex   Race  State Ethnicity `Age Group` `First Year` `Last Year`
##    <chr> <chr> <chr> <chr>     <chr>              <dbl>       <dbl>
##  1 Both… All … Alab… Both      All Ages            2015        2016
##  2 Both… All … Alas… Both      All Ages            2015        2016
##  3 Both… All … Ariz… Both      All Ages            2015        2016
##  4 Both… All … Arka… Both      All Ages            2015        2016
##  5 Both… All … Cali… Both      All Ages            2015        2016
##  6 Both… All … Colo… Both      All Ages            2015        2016
##  7 Both… All … Conn… Both      All Ages            2015        2016
##  8 Both… All … Dela… Both      All Ages            2015        2016
##  9 Both… All … Flor… Both      All Ages            2015        2016
## 10 Both… All … Geor… Both      All Ages            2015        2016
## # … with 41 more rows, and 5 more variables: `Cause of Death` <chr>,
## #   Deaths <dbl>, Population <dbl>, `Crude Rate` <dbl>, `Age-Adjusted
## #   Rate` <chr>
```
…
