…
For these examples, we'll work with the `airquality` dataset available in R. The data in this dataset includes "Daily air quality measurements in New York, May to September 1973." This is a wide dataset because each day is in a separate row and there are multiple columns with each including information about a different variable (ozone, solar.r, wind, temp, month, and day). 

We'll load in the tidyverse, so that we can convert this data.frame to a tibble *and* see the first few lines of this dataset using the following code:


```r
library(tidyverse)

airquality <- as_tibble(airquality)
airquality
```

```
## # A tibble: 153 x 6
##    Ozone Solar.R  Wind  Temp Month   Day
##    <int>   <int> <dbl> <int> <int> <int>
##  1    41     190   7.4    67     5     1
##  2    36     118   8      72     5     2
##  3    12     149  12.6    74     5     3
##  4    18     313  11.5    62     5     4
##  5    NA      NA  14.3    56     5     5
##  6    28      NA  14.9    66     5     6
##  7    23     299   8.6    65     5     7
##  8    19      99  13.8    59     5     8
##  9     8      19  20.1    61     5     9
## 10    NA     194   8.6    69     5    10
## # … with 143 more rows
```
…
In `tidyr`, `pivot_longer()` will take the `airquality` dataset from wide to long, putting each column name into the first column and each corresponding value into the second column. Here, the first column will be called `name`. The second column will still be `value`.


```r
## use pivot_longer() to reshape from wide to long
gathered <- airquality %>%
  pivot_longer(everything())

## take a look at first few rows of long data
gathered
```

```
## # A tibble: 918 x 2
##    name    value
##    <chr>   <dbl>
##  1 Ozone    41  
##  2 Solar.R 190  
##  3 Wind      7.4
##  4 Temp     67  
##  5 Month     5  
##  6 Day       1  
##  7 Ozone    36  
##  8 Solar.R 118  
##  9 Wind      8  
## 10 Temp     72  
## # … with 908 more rows
```
…
However, it's very easy to change the names of these columns within `pivot_longer()`. To do so you specify what the `names_to` and `values_to` columns names should be within `pivot_longer()`:


```r
## to rename the column names that gather provides,
## change key and value to what you want those column names to be
gathered <- airquality %>%
  pivot_longer(everything(), names_to = "variable", values_to = "value")

## take a look at first few rows of long data
gathered 
```

```
## # A tibble: 918 x 2
##    variable value
##    <chr>    <dbl>
##  1 Ozone     41  
##  2 Solar.R  190  
##  3 Wind       7.4
##  4 Temp      67  
##  5 Month      5  
##  6 Day        1  
##  7 Ozone     36  
##  8 Solar.R  118  
##  9 Wind       8  
## 10 Temp      72  
## # … with 908 more rows
```
…
```r
## in pivot_longer(), you can specify which variables 
## you want included in the long format
## it will leave the other variables as is
gathered <- airquality %>%
  pivot_longer(c(Ozone, Solar.R, Wind, Temp), 
               names_to = "variable", 
               values_to = "value")

## take a look at first few rows of long data
gathered
```

```
## # A tibble: 612 x 4
##    Month   Day variable value
##    <int> <int> <chr>    <dbl>
##  1     5     1 Ozone     41  
##  2     5     1 Solar.R  190  
##  3     5     1 Wind       7.4
##  4     5     1 Temp      67  
##  5     5     2 Ozone     36  
##  6     5     2 Solar.R  118  
##  7     5     2 Wind       8  
##  8     5     2 Temp      72  
##  9     5     3 Ozone     12  
## 10     5     3 Solar.R  149  
## # … with 602 more rows
```
…
To return your long data back to its original form, you can use `pivot_wider()`. Here you specify two columns: the column that contains the names of what your wide data columns should be (`names_from`) and the column that contains the values that should go in these columns (`values_from`). The data frame resulting from `pivot_wider()` will have the original information back in the wide format (again, the columns will be in a different order). But, we'll discuss how to rearrange data in the next lesson!


```r
## use pivot_wider() to reshape from long to wide
spread_data <- gathered %>%
  pivot_wider(names_from = "variable", 
              values_from = "value")

## take a look at the wide data
spread_data
```

```
## # A tibble: 153 x 6
##    Month   Day Ozone Solar.R  Wind  Temp
##    <int> <int> <dbl>   <dbl> <dbl> <dbl>
##  1     5     1    41     190   7.4    67
##  2     5     2    36     118   8      72
##  3     5     3    12     149  12.6    74
##  4     5     4    18     313  11.5    62
##  5     5     5    NA      NA  14.3    56
##  6     5     6    28      NA  14.9    66
##  7     5     7    23     299   8.6    65
##  8     5     8    19      99  13.8    59
##  9     5     9     8      19  20.1    61
## 10     5    10    NA     194   8.6    69
## # … with 143 more rows
```

```r
## compare that back to the original
airquality
```

```
## # A tibble: 153 x 6
##    Ozone Solar.R  Wind  Temp Month   Day
##    <int>   <int> <dbl> <int> <int> <int>
##  1    41     190   7.4    67     5     1
##  2    36     118   8      72     5     2
##  3    12     149  12.6    74     5     3
##  4    18     313  11.5    62     5     4
##  5    NA      NA  14.3    56     5     5
##  6    28      NA  14.9    66     5     6
##  7    23     299   8.6    65     5     7
##  8    19      99  13.8    59     5     8
##  9     8      19  20.1    61     5     9
## 10    NA     194   8.6    69     5    10
## # … with 143 more rows
```
…
Multiple variables can be specified with `count()`. 

This can be really useful when getting to know your data.


```r
msleep %>%
  count(vore, order)
```

```
## # A tibble: 32 x 3
##    vore  order               n
##    <chr> <chr>           <int>
##  1 carni Carnivora          12
##  2 carni Cetacea             3
##  3 carni Cingulata           1
##  4 carni Didelphimorphia     1
##  5 carni Primates            1
##  6 carni Rodentia            1
##  7 herbi Artiodactyla        5
##  8 herbi Diprotodontia       1
##  9 herbi Hyracoidea          2
## 10 herbi Lagomorpha          1
## # … with 22 more rows
```
…
Loading this package makes a data frame called `flights`, which includes "on-time data for all flights that departed NYC in 2013," available. We will work with this dataset to demonstrate how to create a date and date-time object from a dataset where the information is spread across multiple columns.

First, to create a new column, as we've done throughout the lessons in this course, we will use `mutate()`. To create a `date` object, we'll use the function `make_date()`. We just then need to supply the names of the columns containing the year, month, and day information to this function. 


```r
## make_date() creates a date object 
## from information in separate columns
flights %>% 
  select(year, month, day) %>% 
  mutate(departure = make_date(year, month, day))
```

```
## # A tibble: 336,776 x 4
##     year month   day departure 
##    <int> <int> <int> <date>    
##  1  2013     1     1 2013-01-01
##  2  2013     1     1 2013-01-01
##  3  2013     1     1 2013-01-01
##  4  2013     1     1 2013-01-01
##  5  2013     1     1 2013-01-01
##  6  2013     1     1 2013-01-01
##  7  2013     1     1 2013-01-01
##  8  2013     1     1 2013-01-01
##  9  2013     1     1 2013-01-01
## 10  2013     1     1 2013-01-01
## # … with 336,766 more rows
```
…
A similar procedure is used to create a date-time object; however, this requires the function `make_datetime()` and requires columns with information about time be specified. Below, `hour` and `minute` are included to the function's input.


```r
## make_datetime() creates a date-time object 
## from information in separate columns
flights %>% 
  select(year, month, day, hour, minute) %>% 
  mutate(departure = make_datetime(year, month, day, hour, minute))
```

```
## # A tibble: 336,776 x 6
##     year month   day  hour minute departure          
##    <int> <int> <int> <dbl>  <dbl> <dttm>             
##  1  2013     1     1     5     15 2013-01-01 05:15:00
##  2  2013     1     1     5     29 2013-01-01 05:29:00
##  3  2013     1     1     5     40 2013-01-01 05:40:00
##  4  2013     1     1     5     45 2013-01-01 05:45:00
##  5  2013     1     1     6      0 2013-01-01 06:00:00
##  6  2013     1     1     5     58 2013-01-01 05:58:00
##  7  2013     1     1     6      0 2013-01-01 06:00:00
##  8  2013     1     1     6      0 2013-01-01 06:00:00
##  9  2013     1     1     6      0 2013-01-01 06:00:00
## 10  2013     1     1     6      0 2013-01-01 06:00:00
## # … with 336,766 more rows
```
…
This becomes particularly helpful when combining information within a data frame. 

For example, if we return to the `msleep` dataset with information about mammalian sleep, we could use `mutate()` to add a column summarizing the name of the animal, how many minutes the animal spends asleep and how many awake. Note that these columns are currently in hours, so we're going to convert that to minutes within the glue statement here:


```r
# add a description column using glue
msleep %>%
  mutate(description = glue("The {name} typically sleeps for {sleep_total * 60} minutes and is awake for {awake * 60} minutes each day.")) %>% 
  select(name, sleep_total, awake, description)
```

```
## # A tibble: 83 x 4
##    name             sleep_total awake description                               
##    <chr>                  <dbl> <dbl> <glue>                                    
##  1 Cheetah                 12.1  11.9 The Cheetah typically sleeps for 726 minu…
##  2 Owl monkey              17     7   The Owl monkey typically sleeps for 1020 …
##  3 Mountain beaver         14.4   9.6 The Mountain beaver typically sleeps for …
##  4 Greater short-t…        14.9   9.1 The Greater short-tailed shrew typically …
##  5 Cow                      4    20   The Cow typically sleeps for 240 minutes …
##  6 Three-toed sloth        14.4   9.6 The Three-toed sloth typically sleeps for…
##  7 Northern fur se…         8.7  15.3 The Northern fur seal typically sleeps fo…
##  8 Vesper mouse             7    17   The Vesper mouse typically sleeps for 420…
##  9 Dog                     10.1  13.9 The Dog typically sleeps for 606 minutes …
## 10 Roe deer                 3    21   The Roe deer typically sleeps for 180 min…
## # … with 73 more rows
```
…
At this point we have a tibble with each line of the poem in a separate row. Now, we want to convert this using `unnest_tokens()` so that each row contains a single token, where, for this example, our token will be an individual word. This process is known as *tokenization*.


```r
text_df %>% 
  unnest_tokens(word, text)
```

```
## # A tibble: 33 x 2
##     line word   
##    <int> <chr>  
##  1     1 they   
##  2     1 say    
##  3     1 that   
##  4     1 carrots
##  5     1 are    
##  6     1 good   
##  7     1 for    
##  8     1 your   
##  9     1 eyes   
## 10     2 they   
## # … with 23 more rows
```
…
However, this requires an additional package: `textdata`. Be sure this has been installed before using the `get_sentiments()` function.


```r
library(textdata)
# be sure textdata is installed
#install.packages("textdata", repos = 'http://cran.us.r-project.org')

# see information stored in NRC lexicon
get_sentiments('nrc')
```

```
## # A tibble: 13,901 x 2
##    word        sentiment
##    <chr>       <chr>    
##  1 abacus      trust    
##  2 abandon     fear     
##  3 abandon     negative 
##  4 abandon     sadness  
##  5 abandoned   anger    
##  6 abandoned   fear     
##  7 abandoned   negative 
##  8 abandoned   sadness  
##  9 abandonment anger    
## 10 abandonment fear     
## # … with 13,891 more rows
```
…
```r
# combine data frames
poem_words <- left_join(poem_words, total_words)
```

```
## Joining, by = "title"
```

```r
poem_words
```

```
## # A tibble: 82 x 4
##    title      word      n total
##    <chr>      <chr> <int> <int>
##  1 Invitation a         8    48
##  2 Invitation come      4    48
##  3 Carrots    they      3    33
##  4 Invitation if        3    48
##  5 Invitation in        3    48
##  6 Masks      and       3    31
##  7 Carrots    i         2    33
##  8 Carrots    that      2    33
##  9 Carrots    your      2    33
## 10 Invitation are       2    48
## # … with 72 more rows
```
…
To calculate tf-idf, we can use `bind_tf_idf()`, specifying three arguments: the column including the token (`word`), the column specifying the document from which the token originated (`title`), and the column including the number of times the word appears (`n`):


```r
poem_words <- poem_words %>%
  bind_tf_idf(word, title, n)

# sort ascending
poem_words %>%
  arrange(tf_idf)
```

```
## # A tibble: 82 x 7
##    title      word      n total     tf   idf  tf_idf
##    <chr>      <chr> <int> <int>  <dbl> <dbl>   <dbl>
##  1 Carrots    for       1    33 0.0303 0     0      
##  2 Invitation for       1    48 0.0208 0     0      
##  3 Masks      for       1    31 0.0323 0     0      
##  4 Invitation by        1    48 0.0208 0.405 0.00845
##  5 Carrots    are       1    33 0.0303 0.405 0.0123 
##  6 Carrots    did       1    33 0.0303 0.405 0.0123 
##  7 Carrots    right     1    33 0.0303 0.405 0.0123 
##  8 Carrots    you       1    33 0.0303 0.405 0.0123 
##  9 Masks      by        1    31 0.0323 0.405 0.0131 
## 10 Masks      right     1    31 0.0323 0.405 0.0131 
## # … with 72 more rows
```

If we sort this output in ascending order by `tf_idf`, you'll notice that the word "for" has a `tf_idf` of 0. The data indicates that this word shows up with equal frequency across all three poems. It is *not* a word unique to any one poem.


```r
# sort descending
poem_words %>%
  arrange(desc(tf_idf))
```

```
## # A tibble: 82 x 7
##    title      word      n total     tf   idf tf_idf
##    <chr>      <chr> <int> <int>  <dbl> <dbl>  <dbl>
##  1 Invitation a         8    48 0.167   1.10 0.183 
##  2 Masks      and       3    31 0.0968  1.10 0.106 
##  3 Invitation come      4    48 0.0833  1.10 0.0916
##  4 Masks      blue      2    31 0.0645  1.10 0.0709
##  5 Masks      he        2    31 0.0645  1.10 0.0709
##  6 Masks      she       2    31 0.0645  1.10 0.0709
##  7 Masks      so        2    31 0.0645  1.10 0.0709
##  8 Invitation if        3    48 0.0625  1.10 0.0687
##  9 Invitation in        3    48 0.0625  1.10 0.0687
## 10 Carrots    i         2    33 0.0606  1.10 0.0666
## # … with 72 more rows
```
…
### For Loops vs. Functionals

In base R, you likely found yourself writing for loops for iteration. For example, if you wanted to carry out an operation on every row of a data frame, you've likely written a for loop to do so that loops through each row of the data frame and carries out what you want to do. However, you also may have heard people bemoan this approach, arguing that it's slow and unnecessary. This is because R is a functional programming language. You can wrap for loops into a function and call the function instead of using the for loop.

Let's use an example to demonstrate what we mean by this. What if you had a data frame and wanted the median value for each column in the data frame? To see how you could approach this, we'll use the `trees` dataset available by default from R:


```r
# see dataset
trees <- as_tibble(trees)
trees
```

```
## # A tibble: 31 x 3
##    Girth Height Volume
##    <dbl>  <dbl>  <dbl>
##  1   8.3     70   10.3
##  2   8.6     65   10.3
##  3   8.8     63   10.2
##  4  10.5     72   16.4
##  5  10.7     81   18.8
##  6  10.8     83   19.7
##  7  11       66   15.6
##  8  11       75   18.2
##  9  11.1     80   22.6
## 10  11.2     75   19.9
## # … with 21 more rows
```
…
Note that there are all the same variations that exist for `map_` exist for `map2()`, so you're able to use `map2_chr()` and `map2_dbl()`, etc. 

Additionally, the `map` functions work well within our `dplyr` approach to working with data. Here, we add the output for our volume calculation to the trees dataset as well as a column (`volume_diff`) that displays the difference between our volume calculation and that reported in the dataset: 


```r
# calculate volume
trees %>%
  mutate(volume_cylinder = map2_dbl(trees$Girth, trees$Height, volume),
         volume_diff = Volume - volume_cylinder)
```

```
## # A tibble: 31 x 5
##    Girth Height Volume volume_cylinder volume_diff
##    <dbl>  <dbl>  <dbl>           <dbl>       <dbl>
##  1   8.3     70   10.3            26.3       -16.0
##  2   8.6     65   10.3            26.2       -15.9
##  3   8.8     63   10.2            26.6       -16.4
##  4  10.5     72   16.4            43.3       -26.9
##  5  10.7     81   18.8            50.6       -31.8
##  6  10.8     83   19.7            52.8       -33.1
##  7  11       66   15.6            43.6       -28.0
##  8  11       75   18.2            49.5       -31.3
##  9  11.1     80   22.6            53.8       -31.2
## 10  11.2     75   19.9            51.3       -31.4
## # … with 21 more rows
```
…
This means that we'll need all the data from the variables necessary to answer this question in our tidy dataset.

#### Healthcare Coverage Data


Let's remind ourselves before we get to wrangling what data we have when it comes to healthcare coverage.


```r
coverage
```

```
## # A tibble: 52 x 29
##    Location `2013__Employer` `2013__Non-Grou… `2013__Medicaid` `2013__Medicare`
##    <chr>               <dbl>            <dbl>            <dbl>            <dbl>
##  1 United …        155696900         13816000         54919100         40876300
##  2 Alabama           2126500           174200           869700           783000
##  3 Alaska             364900            24000            95000            55200
##  4 Arizona           2883800           170800          1346100           842000
##  5 Arkansas          1128800           155600           600800           515200
##  6 Califor…         17747300          1986400          8344800          3828500
##  7 Colorado          2852500           426300           697300           549700
##  8 Connect…          2030500           126800           532000           475300
##  9 Delaware           473700            25100           192700           141300
## 10 Distric…           324300            30400           174900            59900
## # … with 42 more rows, and 24 more variables: `2013__Other Public` <chr>,
## #   `2013__Uninsured` <dbl>, `2013__Total` <dbl>, `2014__Employer` <dbl>,
## #   `2014__Non-Group` <dbl>, `2014__Medicaid` <dbl>, `2014__Medicare` <dbl>,
## #   `2014__Other Public` <chr>, `2014__Uninsured` <dbl>, `2014__Total` <dbl>,
## #   `2015__Employer` <dbl>, `2015__Non-Group` <dbl>, `2015__Medicaid` <dbl>,
## #   `2015__Medicare` <dbl>, `2015__Other Public` <chr>,
## #   `2015__Uninsured` <dbl>, `2015__Total` <dbl>, `2016__Employer` <dbl>,
## #   `2016__Non-Group` <dbl>, `2016__Medicaid` <dbl>, `2016__Medicare` <dbl>,
## #   `2016__Other Public` <chr>, `2016__Uninsured` <dbl>, `2016__Total` <dbl>
```
…
Before going any further, let's add some information about Washington, D.C, the nation's capital, which is not a state, but a territory.


```r
state.abb <- c(state.abb, "DC")
state.region <- as.factor(c(as.character(state.region), "South"))
state.name <- c(state.name, "District of Columbia")
state_data <- tibble(Location = state.name,
                     abb = state.abb,
                     region = state.region)
state_data
```

```
## # A tibble: 51 x 3
##    Location    abb   region   
##    <chr>       <chr> <fct>    
##  1 Alabama     AL    South    
##  2 Alaska      AK    West     
##  3 Arizona     AZ    West     
##  4 Arkansas    AR    South    
##  5 California  CA    West     
##  6 Colorado    CO    West     
##  7 Connecticut CT    Northeast
##  8 Delaware    DE    South    
##  9 Florida     FL    South    
## 10 Georgia     GA    South    
## # … with 41 more rows
```
…
