…
This type of hypothesis is called a null hypothesis becuase it is a statement that expects no difference or change. The alternative hypothesis is the complement statement. It would be that the mean is not 12.

OK, so now we will use the `infer` package to test if our null hypothesis is true.

First, we need to get our data into a tidy format. Thus we will use the `as_tibble()` function of the `tidyr` package.


```r
soda_ounces <-as_tibble(soda_ounces)
soda_ounces
```

```
## # A tibble: 100 x 1
##    value
##    <dbl>
##  1  12.0
##  2  12.0
##  3  12.0
##  4  12.0
##  5  12.0
##  6  12.0
##  7  12.0
##  8  12.0
##  9  12.0
## 10  12.0
## # … with 90 more rows
```
…
