Chapter 5 Modeling Data in the Tidyverse | Tidyverse Skills for Data Science
…
5.15.1 Case Study #1: Health Expenditures

Recall that we wanted to evaluate the following questions of interest using a health care dataset (hc):

Is there a relationship between healthcare coverage and healthcare spending in the United States?

How does the spending distribution change across geographic regions in the United States?

Does the relationship between healthcare coverage and healthcare spending in the United States change from 2013 to 2014?

# see health care data
hc

## # A tibble: 612 x 10
##    Location  year type  tot_coverage abb   region tot_spending tot_pop
##    <chr>    <int> <chr>        <int> <chr> <fct>         <dbl>   <int>
##  1 Alabama   2013 Empl…      2126500 AL    South         33788 4763900
##  2 Alabama   2013 Non-…       174200 AL    South         33788 4763900
##  3 Alabama   2013 Medi…       869700 AL    South         33788 4763900
##  4 Alabama   2013 Medi…       783000 AL    South         33788 4763900
##  5 Alabama   2013 Othe…        85600 AL    South         33788 4763900
##  6 Alabama   2013 Unin…       724800 AL    South         33788 4763900
##  7 Alabama   2014 Empl…      2202800 AL    South         35263 4768000
##  8 Alabama   2014 Non-…       288900 AL    South         35263 4768000
##  9 Alabama   2014 Medi…       891900 AL    South         35263 4768000
## 10 Alabama   2014 Medi…       718400 AL    South         35263 4768000
## # … with 602 more rows, and 2 more variables: prop_coverage <dbl>,
## #   spending_capita <dbl>

5.15.2 Case Study #2: Firearms

Recall that we wanted to evaluate the following questions of interest using data related to firearm legislation and fatal police shootings (firearm):

We are interested in the following question:

At the state-level, what is the relationship between firearm legislation strength and annual rate of fatal police shootings?

# see firearms data
firearms

## # A tibble: 51 x 15
##    NAME  white black hispanic  male total_pop violent_crime brady_scores
##    <chr> <dbl> <dbl>    <dbl> <dbl>     <dbl>         <dbl>        <dbl>
##  1 alab…  69.5 26.7      4.13  48.5   4850858          472.        -18  
##  2 alas…  66.5  3.67     6.82  52.4    737979          730.        -30  
##  3 ariz…  83.5  4.80    30.9   49.7   6802262          410.        -39  
##  4 arka…  79.6 15.7      7.18  49.1   2975626          521.        -24  
##  5 cali…  73.0  6.49    38.7   49.7  39032444          426.         76  
##  6 colo…  87.6  4.47    21.3   50.3   5440445          321          22  
##  7 conn…  80.9 11.6     15.3   48.8   3593862          218.         73  
##  8 dela…  70.3 22.5      8.96  48.4    944107          499          41  
##  9 dist…  44.1 48.5     10.7   47.4    672736         1269.         NA  
## 10 flor…  77.7 16.9     24.7   48.9  20268567          462.        -20.5
## # … with 41 more rows, and 7 more variables: gunshot_tally <int>,
## #   gunshot_filtered <int>, gunshot_rate <dbl>, unemployment_rate <dbl>,
## #   unemployment_rank <int>, density <dbl>, ownership <dbl>
…
