Chapter 3 Wrangling Data in the Tidyverse | Tidyverse Skills for Data Science
…
Reshaping data

Within the tidyverse, tidyr is the go-to package for accomplishing this task. Within the tidyr package, you’ll have to become familiar with a number of functions. The two most pertinent to reshaping data are: pivot_wider() and pivot_longer().

For these examples, we’ll work with the airquality dataset available in R. The data in this dataset includes “Daily air quality measurements in New York, May to September 1973.” This is a wide dataset because each day is in a separate row and there are multiple columns with each including information about a different variable (ozone, solar.r, wind, temp, month, and day).

We’ll load in the tidyverse, so that we can convert this data.frame to a tibble and see the first few lines of this dataset using the following code:

library(tidyverse)

airquality <- as_tibble(airquality)
airquality

## # A tibble: 153 x 6
##    Ozone Solar.R  Wind  Temp Month   Day
##    <int>   <int> <dbl> <int> <int> <int>
##  1    41     190   7.4    67     5     1
##  2    36     118   8      72     5     2
##  3    12     149  12.6    74     5     3
##  4    18     313  11.5    62     5     4
##  5    NA      NA  14.3    56     5     5
##  6    28      NA  14.9    66     5     6
##  7    23     299   8.6    65     5     7
##  8    19      99  13.8    59     5     8
##  9     8      19  20.1    61     5     9
## 10    NA     194   8.6    69     5    10
## # … with 143 more rows
…
3.3.3.1.1 pivot_longer()

As data are often stored in wide formats, you’ll likely use pivot_longer() a lot more frequently than you’ll use pivot_wider(). This will allow you to get the data into a long format that will be easy to use for analysis.

In tidyr, pivot_longer() will take the airquality dataset from wide to long, putting each column name into the first column and each corresponding value into the second column. Here, the first column will be called name. The second column will still be value.

## use pivot_longer() to reshape from wide to long
gathered <- airquality %>%
  pivot_longer(everything())

## take a look at first few rows of long data
gathered

## # A tibble: 918 x 2
##    name    value
##    <chr>   <dbl>
##  1 Ozone    41  
##  2 Solar.R 190  
##  3 Wind      7.4
##  4 Temp     67  
##  5 Month     5  
##  6 Day       1  
##  7 Ozone    36  
##  8 Solar.R 118  
##  9 Wind      8  
## 10 Temp     72  
## # … with 908 more rows
…
Longer dataset

However, it’s very easy to change the names of these columns within pivot_longer(). To do so you specify what the names_to and values_to columns names should be within pivot_longer():

## to rename the column names that gather provides,
## change key and value to what you want those column names to be
gathered <- airquality %>%
  pivot_longer(everything(), names_to = "variable", values_to = "value")

## take a look at first few rows of long data
gathered 

## # A tibble: 918 x 2
##    variable value
##    <chr>    <dbl>
##  1 Ozone     41  
##  2 Solar.R  190  
##  3 Wind       7.4
##  4 Temp      67  
##  5 Month      5  
##  6 Day        1  
##  7 Ozone     36  
##  8 Solar.R  118  
##  9 Wind       8  
## 10 Temp      72  
## # … with 908 more rows
…
However, you’re likely not interested in your day and month variable being separated out into their own variables within the variable column. In fact, knowing the day and month associated with a particular data point helps identify that particular data point. To account for this, you can exclude day and month from the variables being included in the variable column by specifying all the variables that you do want included in the variable column. Here, that means specifying Ozone, Solar.R, Wind, and Temp. This will keep Day and Month in their own columns, allowing each row to be identified by the specific day and month being discussed.

## in pivot_longer(), you can specify which variables 
## you want included in the long format
## it will leave the other variables as is
gathered <- airquality %>%
  pivot_longer(c(Ozone, Solar.R, Wind, Temp), 
               names_to = "variable", 
               values_to = "value")

## take a look at first few rows of long data
gathered

## # A tibble: 612 x 4
##    Month   Day variable value
##    <int> <int> <chr>    <dbl>
##  1     5     1 Ozone     41  
##  2     5     1 Solar.R  190  
##  3     5     1 Wind       7.4
##  4     5     1 Temp      67  
##  5     5     2 Ozone     36  
##  6     5     2 Solar.R  118  
##  7     5     2 Wind       8  
##  8     5     2 Temp      72  
##  9     5     3 Ozone     12  
## 10     5     3 Solar.R  149  
## # … with 602 more rows
…
Now, when you look at the top of this object, you’ll see that Month and Day remain in the data frame and that variable combines information from the other columns in airquality (Ozone, Solar.R, Wind, Temp). This is still a long format dataset; however, it has used Month and Day as IDs when reshaping the data frame.

3.3.3.1.2 pivot_wider()

To return your long data back to its original form, you can use pivot_wider(). Here you specify two columns: the column that contains the names of what your wide data columns should be (names_from) and the column that contains the values that should go in these columns (values_from). The data frame resulting from pivot_wider() will have the original information back in the wide format (again, the columns will be in a different order). But, we’ll discuss how to rearrange data in the next lesson!

## use pivot_wider() to reshape from long to wide
spread_data <- gathered %>%
  pivot_wider(names_from = "variable", 
              values_from = "value")

## take a look at the wide data
spread_data

## # A tibble: 153 x 6
##    Month   Day Ozone Solar.R  Wind  Temp
##    <int> <int> <dbl>   <dbl> <dbl> <dbl>
##  1     5     1    41     190   7.4    67
##  2     5     2    36     118   8      72
##  3     5     3    12     149  12.6    74
##  4     5     4    18     313  11.5    62
##  5     5     5    NA      NA  14.3    56
##  6     5     6    28      NA  14.9    66
##  7     5     7    23     299   8.6    65
##  8     5     8    19      99  13.8    59
##  9     5     9     8      19  20.1    61
## 10     5    10    NA     194   8.6    69
## # … with 143 more rows

## compare that back to the original
airquality

## # A tibble: 153 x 6
##    Ozone Solar.R  Wind  Temp Month   Day
##    <int>   <int> <dbl> <int> <int> <int>
##  1    41     190   7.4    67     5     1
##  2    36     118   8      72     5     2
##  3    12     149  12.6    74     5     3
##  4    18     313  11.5    62     5     4
##  5    NA      NA  14.3    56     5     5
##  6    28      NA  14.9    66     5     6
##  7    23     299   8.6    65     5     7
##  8    19      99  13.8    59     5     8
##  9     8      19  20.1    61     5     9
## 10    NA     194   8.6    69     5    10
## # … with 143 more rows
…
Multiple variables can be specified with count().

This can be really useful when getting to know your data.

msleep %>%
  count(vore, order)

## # A tibble: 32 x 3
##    vore  order               n
##    <chr> <chr>           <int>
##  1 carni Carnivora          12
##  2 carni Cetacea             3
##  3 carni Cingulata           1
##  4 carni Didelphimorphia     1
##  5 carni Primates            1
##  6 carni Rodentia            1
##  7 herbi Artiodactyla        5
##  8 herbi Diprotodontia       1
##  9 herbi Hyracoidea          2
## 10 herbi Lagomorpha          1
## # … with 22 more rows
…
The across() function can be used in conjunction with the mutate() and filter() functions to construct joint operations across different columns of a data frame. For example, suppose we wanted to filter the rows of the airquality data frame so that we only retain rows that do not have missing values for Ozone and Solar.R. Generally, we might use the filter() function for this, as follows.

airquality %>%
  filter(!is.na(Ozone),
         !is.na(Solar.R))

Because we are only filtering on two columns here, it’s not too difficult to write out the expression. However, if we were filtering on many columns, it would become a challenge to write out every column. This is where the across() function comes in handy. With the across() function, we can specify columns in the same way that we use the select() function. This allows us to use short-hand notation to select a large set of columns.

We can use the across() function in conjunction with filter() to achieve the same result as above..

airquality %>%
  filter(across(Ozone:Solar.R, ~ !is.na(.)))

## # A tibble: 111 x 6
##    Ozone Solar.R  Wind  Temp Month   Day
##    <int>   <int> <dbl> <int> <int> <int>
##  1    41     190   7.4    67     5     1
##  2    36     118   8      72     5     2
##  3    12     149  12.6    74     5     3
##  4    18     313  11.5    62     5     4
##  5    23     299   8.6    65     5     7
##  6    19      99  13.8    59     5     8
##  7     8      19  20.1    61     5     9
##  8    16     256   9.7    69     5    12
##  9    11     290   9.2    66     5    13
## 10    14     274  10.9    68     5    14
## # … with 101 more rows

Here, the ~ in the call to across() indicates that we are passing an anonymous function (see the chapter on Functional Programming for more details) and the . is a stand-in for the name of the column.

If we wanted to filter the data frame to remove rows with missing values in Ozone, Solar.R, Wind, and Temp, we only need to make a small change.

airquality %>%
  filter(across(Ozone:Temp, ~ !is.na(.)))

## # A tibble: 111 x 6
##    Ozone Solar.R  Wind  Temp Month   Day
##    <int>   <int> <dbl> <int> <int> <int>
##  1    41     190   7.4    67     5     1
##  2    36     118   8      72     5     2
##  3    12     149  12.6    74     5     3
##  4    18     313  11.5    62     5     4
##  5    23     299   8.6    65     5     7
##  6    19      99  13.8    59     5     8
##  7     8      19  20.1    61     5     9
##  8    16     256   9.7    69     5    12
##  9    11     290   9.2    66     5    13
## 10    14     274  10.9    68     5    14
## # … with 101 more rows

The across() function can also be used with mutate() if we want to apply the same transformation to multiple columns. For example, suppose we want to cycle through each column and replace all missing values (NAs) with zeros. We could use across() to accomplish this.

airquality %>%
  mutate(across(Ozone:Temp, ~ replace_na(., 0)))

## # A tibble: 153 x 6
##    Ozone Solar.R  Wind  Temp Month   Day
##    <dbl>   <dbl> <dbl> <dbl> <int> <int>
##  1    41     190   7.4    67     5     1
##  2    36     118   8      72     5     2
##  3    12     149  12.6    74     5     3
##  4    18     313  11.5    62     5     4
##  5     0       0  14.3    56     5     5
##  6    28       0  14.9    66     5     6
##  7    23     299   8.6    65     5     7
##  8    19      99  13.8    59     5     8
##  9     8      19  20.1    61     5     9
## 10     0     194   8.6    69     5    10
## # … with 143 more rows
…
#install.packages('nycflights13')
library(nycflights13)

Loading this package makes a data frame called flights, which includes “on-time data for all flights that departed NYC in 2013,” available. We will work with this dataset to demonstrate how to create a date and date-time object from a dataset where the information is spread across multiple columns.

First, to create a new column, as we’ve done throughout the lessons in this course, we will use mutate(). To create a date object, we’ll use the function make_date(). We just then need to supply the names of the columns containing the year, month, and day information to this function.

## make_date() creates a date object 
## from information in separate columns
flights %>% 
  select(year, month, day) %>% 
  mutate(departure = make_date(year, month, day))

## # A tibble: 336,776 x 4
##     year month   day departure 
##    <int> <int> <int> <date>    
##  1  2013     1     1 2013-01-01
##  2  2013     1     1 2013-01-01
##  3  2013     1     1 2013-01-01
##  4  2013     1     1 2013-01-01
##  5  2013     1     1 2013-01-01
##  6  2013     1     1 2013-01-01
##  7  2013     1     1 2013-01-01
##  8  2013     1     1 2013-01-01
##  9  2013     1     1 2013-01-01
## 10  2013     1     1 2013-01-01
## # … with 336,766 more rows
…
mutate() and make_date() create a new column – departure – with a date object

A similar procedure is used to create a date-time object; however, this requires the function make_datetime() and requires columns with information about time be specified. Below, hour and minute are included to the function’s input.

## make_datetime() creates a date-time object 
## from information in separate columns
flights %>% 
  select(year, month, day, hour, minute) %>% 
  mutate(departure = make_datetime(year, month, day, hour, minute))

## # A tibble: 336,776 x 6
##     year month   day  hour minute departure          
##    <int> <int> <int> <dbl>  <dbl> <dttm>             
##  1  2013     1     1     5     15 2013-01-01 05:15:00
##  2  2013     1     1     5     29 2013-01-01 05:29:00
##  3  2013     1     1     5     40 2013-01-01 05:40:00
##  4  2013     1     1     5     45 2013-01-01 05:45:00
##  5  2013     1     1     6      0 2013-01-01 06:00:00
##  6  2013     1     1     5     58 2013-01-01 05:58:00
##  7  2013     1     1     6      0 2013-01-01 06:00:00
##  8  2013     1     1     6      0 2013-01-01 06:00:00
##  9  2013     1     1     6      0 2013-01-01 06:00:00
## 10  2013     1     1     6      0 2013-01-01 06:00:00
## # … with 336,766 more rows
…
## My favorite thing to learn about is the tidyverse!

Note that the code above interprets the variable topic within the string specified in the glue() function. The variable is specified within curly braces: {}.

This becomes particularly helpful when combining information within a data frame.

For example, if we return to the msleep dataset with information about mammalian sleep, we could use mutate() to add a column summarizing the name of the animal, how many minutes the animal spends asleep and how many awake. Note that these columns are currently in hours, so we’re going to convert that to minutes within the glue statement here:

# add a description column using glue
msleep %>%
  mutate(description = glue("The {name} typically sleeps for {sleep_total * 60} minutes and is awake for {awake * 60} minutes each day.")) %>% 
  select(name, sleep_total, awake, description)

## # A tibble: 83 x 4
##    name             sleep_total awake description                               
##    <chr>                  <dbl> <dbl> <glue>                                    
##  1 Cheetah                 12.1  11.9 The Cheetah typically sleeps for 726 minu…
##  2 Owl monkey              17     7   The Owl monkey typically sleeps for 1020 …
##  3 Mountain beaver         14.4   9.6 The Mountain beaver typically sleeps for …
##  4 Greater short-t…        14.9   9.1 The Greater short-tailed shrew typically …
##  5 Cow                      4    20   The Cow typically sleeps for 240 minutes …
##  6 Three-toed sloth        14.4   9.6 The Three-toed sloth typically sleeps for…
##  7 Northern fur se…         8.7  15.3 The Northern fur seal typically sleeps fo…
##  8 Vesper mouse             7    17   The Vesper mouse typically sleeps for 420…
##  9 Dog                     10.1  13.9 The Dog typically sleeps for 606 minutes …
## 10 Roe deer                 3    21   The Roe deer typically sleeps for 180 min…
## # … with 73 more rows
…
## # A tibble: 4 x 2
##    line text                                        
##   <int> <chr>                                       
## 1     1 They say that carrots are good for your eyes
## 2     2 They swear that they improve your sight     
## 3     3 But I'm seein' worse than I did last night -
## 4     4 You think maybe I ain't usin' em right?

At this point we have a tibble with each line of the poem in a separate row. Now, we want to convert this using unnest_tokens() so that each row contains a single token, where, for this example, our token will be an individual word. This process is known as tokenization.

text_df %>% 
  unnest_tokens(word, text)

## # A tibble: 33 x 2
##     line word   
##    <int> <chr>  
##  1     1 they   
##  2     1 say    
##  3     1 that   
##  4     1 carrots
##  5     1 are    
##  6     1 good   
##  7     1 for    
##  8     1 your   
##  9     1 eyes   
## 10     2 they   
## # … with 23 more rows
…
Often, once you’ve tokenized your dataset, there is an analysis you want to do - a question you want to answer. Sometimes, this involves wanting to measure the sentiment of a piece by looking at the emotional content of the words in that piece.

To do this, the analyst must have access to or create a lexicon, a dictionary with the sentiment of common words. There are three single word-based lexicons available within the tidytext package: afinn, bing, loughran and nrc. Each differs in how they categorize sentiment, and to get a sense of how words are categorized in any of these lexicon, you can use the get_sentiments() function.

However, this requires an additional package: textdata. Be sure this has been installed before using the get_sentiments() function.

library(textdata)
# be sure textdata is installed
#install.packages("textdata", repos = 'http://cran.us.r-project.org')

# see information stored in NRC lexicon
get_sentiments('nrc')

## # A tibble: 13,901 x 2
##    word        sentiment
##    <chr>       <chr>    
##  1 abacus      trust    
##  2 abandon     fear     
##  3 abandon     negative 
##  4 abandon     sadness  
##  5 abandoned   anger    
##  6 abandoned   fear     
##  7 abandoned   negative 
##  8 abandoned   sadness  
##  9 abandonment anger    
## 10 abandonment fear     
## # … with 13,891 more rows
…
# count total number of words in each poem
total_words <- poem_words %>% 
  group_by(title) %>% 
  summarize(total = sum(n))

## `summarise()` ungrouping output (override with `.groups` argument)

# combine data frames
poem_words <- left_join(poem_words, total_words)

## Joining, by = "title"

poem_words

## # A tibble: 82 x 4
##    title      word      n total
##    <chr>      <chr> <int> <int>
##  1 Invitation a         8    48
##  2 Invitation come      4    48
##  3 Carrots    they      3    33
##  4 Invitation if        3    48
##  5 Invitation in        3    48
##  6 Masks      and       3    31
##  7 Carrots    i         2    33
##  8 Carrots    that      2    33
##  9 Carrots    your      2    33
## 10 Invitation are       2    48
## # … with 72 more rows
…
